{
  "data" : [
    {
      "filename" : "default_presets.json",
      "idiom" : "universal",
      "universal-type-identifier" : "public.json"
    }
  ],
  "info" : {
    "author" : "xcode",
    "version" : 1
  }
}
